{
  "mac": "5C:CF:7F:21:FE:C1",
  "nombre": "Webservice",
  "lista": [
    {
      "num": 5,
      "valor": "LOW"
    },
    {
      "num": 4,
      "valor": "LOW"
    },
    {
      "num": 3,
      "valor": "LOW"
    },
    {
      "num": 2,
      "valor": "LOW"
    },
    {
      "num": 1,
      "valor": "LOW"
    }
  ],
  "sensores": {
    "temperatura": "19°C",
    "longitud": "-83,6915892",
    "latitud": "9.3796160"
  }
}